…
We can also pull out specific features of the model using `get_dw_*()`
functions. [deweather](https://openair-project.github.io/deweather/) has
many of such ‘getter’ functions, and they form a consistent, useful API
for accessing relevant features of different objects created in the
package.

``` r
get_dw_pollutant(no2_model)
#> [1] "no2"
get_dw_vars(no2_model)
#> [1] "trend"    "ws"       "wd"       "hour"     "weekday"  "air_temp"
get_dw_input_data(no2_model)
#> # A tibble: 144,535 × 7
#>      no2     trend    ws    wd  hour weekday air_temp
#>    <dbl>     <dbl> <dbl> <dbl> <int> <fct>      <dbl>
#>  1    78 946684800  2.1    200     0 Sat         7.4 
#>  2    84 946688400  2.1    190     1 Sat         7.83
#>  3   117 946692000  1.8    215     2 Sat         7.95
#>  4    97 946695600  1.25   240     3 Sat         8.05
#>  5    74 946699200  1.55   260     4 Sat         8.6 
#>  6    65 946702800  2.35   270     5 Sat         8.35
#>  7    67 946706400  1.8    260     6 Sat         8.2 
#>  8    69 946710000  1      250     7 Sat         7.1 
#>  9    67 946713600  0.5    240     8 Sat         6.2 
#> 10    57 946720800  0.5    210    10 Sat         6.9 
#> # ℹ 144,525 more rows
```
…
